rmkdAlbertSante
…
observons leffectif pour le cas minimal

dataMat <- dataMat <- dfMat %>% select(Fjob, Mjob, health) %>%
  unite("Pjob",c(Mjob, Fjob) , sep = "\n", remove = TRUE) %>%
  count(Pjob)

dataMat

## # A tibble: 24 x 2
##    Pjob                    n
##  * <chr>               <int>
##  1 "at_home\nat_home"      7
##  2 "at_home\nhealth"       2
##  3 "at_home\nother"       33
##  4 "at_home\nservices"    15
##  5 "at_home\nteacher"      2
##  6 "health\nhealth"        6
##  7 "health\nother"        17
##  8 "health\nservices"     10
##  9 "health\nteacher"       1
## 10 "other\nat_home"        5
## # ... with 14 more rows

dataPor <- dataPor <- dfPor %>% select(Fjob, Mjob, health) %>%
  unite("Pjob",c(Mjob, Fjob) , sep = "\n", remove = TRUE) %>%
  count(Pjob)

dataPor

## # A tibble: 25 x 2
##    Pjob                    n
##  * <chr>               <int>
##  1 "at_home\nat_home"     18
##  2 "at_home\nhealth"       2
##  3 "at_home\nother"       77
##  4 "at_home\nservices"    36
##  5 "at_home\nteacher"      2
##  6 "health\nat_home"       1
##  7 "health\nhealth"        9
##  8 "health\nother"        21
##  9 "health\nservices"     15
## 10 "health\nteacher"       2
## # ... with 15 more rows
…
dataPor <- dataPor <- dfPor %>% select(Fedu, Medu, health) %>%
  unite("Pedu",c(Medu, Fedu) , sep = "\n", remove = TRUE) %>%
  count(Pedu)

dataPor

## # A tibble: 21 x 2
##    Pedu       n
##  * <chr>  <int>
##  1 "0\n0"     1
##  2 "0\n1"     2
##  3 "0\n2"     3
##  4 "1\n0"     5
##  5 "1\n1"    92
##  6 "1\n2"    36
##  7 "1\n3"     8
##  8 "1\n4"     2
##  9 "2\n1"    52
## 10 "2\n2"   101
## # ... with 11 more rows
…
observons leffectif pour le cas minimal

dataMat <- dataMat <- dfMat %>% select(Fjob, Mjob, famrel) %>%
  unite("Pjob",c(Mjob, Fjob) , sep = "\n", remove = TRUE) %>%
  count(Pjob)

dataMat

## # A tibble: 24 x 2
##    Pjob                    n
##  * <chr>               <int>
##  1 "at_home\nat_home"      7
##  2 "at_home\nhealth"       2
##  3 "at_home\nother"       33
##  4 "at_home\nservices"    15
##  5 "at_home\nteacher"      2
##  6 "health\nhealth"        6
##  7 "health\nother"        17
##  8 "health\nservices"     10
##  9 "health\nteacher"       1
## 10 "other\nat_home"        5
## # ... with 14 more rows

dataPor <- dataPor <- dfPor %>% select(Fjob, Mjob, famrel) %>%
  unite("Pjob",c(Mjob, Fjob) , sep = "\n", remove = TRUE) %>%
  count(Pjob)

dataPor

## # A tibble: 25 x 2
##    Pjob                    n
##  * <chr>               <int>
##  1 "at_home\nat_home"     18
##  2 "at_home\nhealth"       2
##  3 "at_home\nother"       77
##  4 "at_home\nservices"    36
##  5 "at_home\nteacher"      2
##  6 "health\nat_home"       1
##  7 "health\nhealth"        9
##  8 "health\nother"        21
##  9 "health\nservices"     15
## 10 "health\nteacher"       2
## # ... with 15 more rows
…
dataPor <- dataPor <- dfPor %>% select(Fedu, Medu, famrel) %>%
  unite("Pedu",c(Medu, Fedu) , sep = "\n", remove = TRUE) %>%
  count(Pedu)

dataPor

## # A tibble: 21 x 2
##    Pedu       n
##  * <chr>  <int>
##  1 "0\n0"     1
##  2 "0\n1"     2
##  3 "0\n2"     3
##  4 "1\n0"     5
##  5 "1\n1"    92
##  6 "1\n2"    36
##  7 "1\n3"     8
##  8 "1\n4"     2
##  9 "2\n1"    52
## 10 "2\n2"   101
## # ... with 11 more rows
